Learning/Training/MSD/zynq_s06/hls/solution1/sim/systemc/axi_stream_counter_range_sc_trace_0.vcd
$date
     Mar 29, 2016       11:00:31
$end

$version
              SystemC 2.3.0-ASI --- May 15 2013 06:32:03
$end

$timescale
     1 ps
$end

$scope module SystemC $end
$var wire    1  aaa  ap_rst_n_inv       $end
$var wire    2  aaaab  ap_CS_fsm [1:0]  $end
$var wire    1  aac  ap_sig_cseq_ST_st1_fsm_0       $end
$var wire    1  aad  ap_sig_bdd_20       $end
$var wire   32  aaaae  count_range_read_reg_67 [31:0]  $end
$var wire    1  aaf  ap_sig_bdd_39       $end
$var wire   31  aaaag  counterValue_1_fu_61_p2 [30:0]  $end
$var wire    1  aah  ap_sig_cseq_ST_st2_fsm_1       $end
$var wire    1  aai  ap_sig_bdd_49       $end
$var wire    1  aaaaj  tmp_fu_56_p2       $end
$var wire    1  aak  ap_sig_ioackin_counter_TREADY       $end
$var wire   31  aaaal  counterValue_reg_39 [30:0]  $end
$var wire   32  aaaam  counterValue_cast_fu_51_p1 [31:0]  $end
$var wire    1  aan  ap_reg_ioackin_counter_TREADY       $end
$var wire    2  aaaao  ap_NS_fsm [1:0]  $end
$var wire    1  aap  ap_sig_bdd_66       $end
$var wire   32  aaaaq  (port)ap_return [31:0]  $end
$var wire    1  aar  (port)counter_TREADY       $end
$var wire    1  aas  (port)counter_TVALID       $end
$var wire   32  aaaat  (port)counter_TDATA [31:0]  $end
$var wire    1  aau  (port)count_range_TREADY       $end
$var wire    1  aav  (port)count_range_TVALID       $end
$var wire   32  aaaaw  (port)count_range_TDATA [31:0]  $end
$var wire    1  aax  (port)ap_ready       $end
$var wire    1  aay  (port)ap_idle       $end
$var wire    1  aaz  (port)ap_done       $end
$var wire    1  aba  (port)ap_start       $end
$var wire    1  abb  (port)ap_rst_n       $end
$var wire    1  abc  (port)ap_clk       $end
$upscope $end
$enddefinitions  $end

$comment
All initial values are dumped below at time 0 sec = 0 timescale units.
$end

$dumpvars
1aaa
b1 aaaab
1aac
1aad
bXXXXXXXXXXXXXXXXXXXXXXXXXXXXXXXX aaaae
1aaf
bXXXXXXXXXXXXXXXXXXXXXXXXXXXXXXX aaaag
0aah
0aai
Xaaaaj
0aak
bXXXXXXXXXXXXXXXXXXXXXXXXXXXXXXX aaaal
bXXXXXXXXXXXXXXXXXXXXXXXXXXXXXXXX aaaam
0aan
b1 aaaao
0aap
b0 aaaaq
0aar
0aas
bXXXXXXXXXXXXXXXXXXXXXXXXXXXXXXXX aaaat
0aau
0aav
bXXXXXXXXXXXXXXXXXXXXXXXXXXXXXXXX aaaaw
0aax
1aay
0aaz
0aba
0abb
0abc
$end

#5000
1abc

#10000
0abc

#15000
1abc

#20000
0abc

#25000
1abc

#30000
0abc

#35000
1abc

#40000
0abc

#45000
0aaa
1aak
1aar
1abb
1abc

#50000
0abc

#55000
1abc

#55010
0aay
1aba

#55030
0aaf
b10 aaaao
1aau
1aav
b0 aaaaw

#60000
0abc

#65000
b10 aaaab
0aac
0aad
b0 aaaae
1aaf
b1 aaaag
1aah
1aai
0aaaaj
b0 aaaal
b0 aaaam
b1 aaaao
b0 aaaat
0aau
0aav
bXXXXXXXXXXXXXXXXXXXXXXXXXXXXXXXX aaaaw
1aax
1aaz
1abc

#70000
0abc

#75000
b1 aaaab
1aac
1aad
0aah
0aai
0aax
0aaz
1abc

#75030
0aaf
b10 aaaao
1aau
1aav
b1 aaaaw

#80000
0abc

#85000
b10 aaaab
0aac
0aad
b1 aaaae
1aaf
1aah
1aai
1aaaaj
1aap
1aas
0aau
0aav
bXXXXXXXXXXXXXXXXXXXXXXXXXXXXXXXX aaaaw
1abc

#90000
0abc

#95000
b10 aaaag
0aaaaj
b1 aaaal
b1 aaaam
b1 aaaao
0aap
0aas
b1 aaaat
1aax
1aaz
1abc

#100000
0abc

#105000
b1 aaaab
1aac
1aad
0aah
0aai
0aax
0aaz
1abc

#105030
0aaf
b10 aaaao
1aau
1aav
b10 aaaaw

#110000
0abc

#115000
b10 aaaab
0aac
0aad
b10 aaaae
1aaf
b1 aaaag
1aah
1aai
1aaaaj
b0 aaaal
b0 aaaam
1aap
1aas
b0 aaaat
0aau
0aav
bXXXXXXXXXXXXXXXXXXXXXXXXXXXXXXXX aaaaw
1abc

#120000
0abc

#125000
b10 aaaag
b1 aaaal
b1 aaaam
b1 aaaat
1abc

#130000
0abc

#135000
b11 aaaag
0aaaaj
b10 aaaal
b10 aaaam
b1 aaaao
0aap
0aas
b10 aaaat
1aax
1aaz
1abc

#140000
0abc

#145000
b1 aaaab
1aac
1aad
0aah
0aai
0aax
0aaz
1abc

#145030
0aaf
b10 aaaao
1aau
1aav
b11 aaaaw

#150000
0abc

#155000
b10 aaaab
0aac
0aad
b11 aaaae
1aaf
b1 aaaag
1aah
1aai
1aaaaj
b0 aaaal
b0 aaaam
1aap
1aas
b0 aaaat
0aau
0aav
bXXXXXXXXXXXXXXXXXXXXXXXXXXXXXXXX aaaaw
1abc

#160000
0abc

#165000
b10 aaaag
b1 aaaal
b1 aaaam
b1 aaaat
1abc

#170000
0abc

#175000
b11 aaaag
b10 aaaal
b10 aaaam
b10 aaaat
1abc

#180000
0abc

#185000
b100 aaaag
0aaaaj
b11 aaaal
b11 aaaam
b1 aaaao
0aap
0aas
b11 aaaat
1aax
1aaz
1abc

#190000
0abc

#195000
b1 aaaab
1aac
1aad
0aah
0aai
0aax
0aaz
1abc

#195030
0aaf
b10 aaaao
1aau
1aav
b100 aaaaw

#200000
0abc

#205000
b10 aaaab
0aac
0aad
b100 aaaae
1aaf
b1 aaaag
1aah
1aai
1aaaaj
b0 aaaal
b0 aaaam
1aap
1aas
b0 aaaat
0aau
0aav
bXXXXXXXXXXXXXXXXXXXXXXXXXXXXXXXX aaaaw
1abc

#210000
0abc

#215000
b10 aaaag
b1 aaaal
b1 aaaam
b1 aaaat
1abc

#220000
0abc

#225000
b11 aaaag
b10 aaaal
b10 aaaam
b10 aaaat
1abc

#230000
0abc

#235000
b100 aaaag
b11 aaaal
b11 aaaam
b11 aaaat
1abc

#240000
0abc

#245000
b101 aaaag
0aaaaj
b100 aaaal
b100 aaaam
b1 aaaao
0aap
0aas
b100 aaaat
1aax
1aaz
1abc

#250000
0abc

#255000
b1 aaaab
1aac
1aad
0aah
0aai
0aax
0aaz
1abc

#255030
0aaf
b10 aaaao
1aau
1aav
b101 aaaaw

#260000
0abc

#265000
b10 aaaab
0aac
0aad
b101 aaaae
1aaf
b1 aaaag
1aah
1aai
1aaaaj
b0 aaaal
b0 aaaam
1aap
1aas
b0 aaaat
0aau
0aav
bXXXXXXXXXXXXXXXXXXXXXXXXXXXXXXXX aaaaw
1abc

#270000
0abc

#275000
b10 aaaag
b1 aaaal
b1 aaaam
b1 aaaat
1abc

#280000
0abc

#285000
b11 aaaag
b10 aaaal
b10 aaaam
b10 aaaat
1abc

#290000
0abc

#295000
b100 aaaag
b11 aaaal
b11 aaaam
b11 aaaat
1abc

#300000
0abc

#305000
b101 aaaag
b100 aaaal
b100 aaaam
b100 aaaat
1abc

#310000
0abc

#315000
b110 aaaag
0aaaaj
b101 aaaal
b101 aaaam
b1 aaaao
0aap
0aas
b101 aaaat
1aax
1aaz
1abc

#320000
0abc

#325000
b1 aaaab
1aac
1aad
0aah
0aai
0aax
0aaz
1abc

#325030
0aaf
b10 aaaao
1aau
1aav
b110 aaaaw

#330000
0abc

#335000
b10 aaaab
0aac
0aad
b110 aaaae
1aaf
b1 aaaag
1aah
1aai
1aaaaj
b0 aaaal
b0 aaaam
1aap
1aas
b0 aaaat
0aau
0aav
bXXXXXXXXXXXXXXXXXXXXXXXXXXXXXXXX aaaaw
1abc

#340000
0abc

#345000
b10 aaaag
b1 aaaal
b1 aaaam
b1 aaaat
1abc

#350000
0abc

#355000
b11 aaaag
b10 aaaal
b10 aaaam
b10 aaaat
1abc

#360000
0abc

#365000
b100 aaaag
b11 aaaal
b11 aaaam
b11 aaaat
1abc

#370000
0abc

#375000
b101 aaaag
b100 aaaal
b100 aaaam
b100 aaaat
1abc

#380000
0abc

#385000
b110 aaaag
b101 aaaal
b101 aaaam
b101 aaaat
1abc

#390000
0abc

#395000
b111 aaaag
0aaaaj
b110 aaaal
b110 aaaam
b1 aaaao
0aap
0aas
b110 aaaat
1aax
1aaz
1abc

#400000
0abc

#405000
b1 aaaab
1aac
1aad
0aah
0aai
0aax
0aaz
1abc

#405030
0aaf
b10 aaaao
1aau
1aav
b111 aaaaw

#410000
0abc

#415000
b10 aaaab
0aac
0aad
b111 aaaae
1aaf
b1 aaaag
1aah
1aai
1aaaaj
b0 aaaal
b0 aaaam
1aap
1aas
b0 aaaat
0aau
0aav
bXXXXXXXXXXXXXXXXXXXXXXXXXXXXXXXX aaaaw
1abc

#420000
0abc

#425000
b10 aaaag
b1 aaaal
b1 aaaam
b1 aaaat
1abc

#430000
0abc

#435000
b11 aaaag
b10 aaaal
b10 aaaam
b10 aaaat
1abc

#440000
0abc

#445000
b100 aaaag
b11 aaaal
b11 aaaam
b11 aaaat
1abc

#450000
0abc

#455000
b101 aaaag
b100 aaaal
b100 aaaam
b100 aaaat
1abc

#460000
0abc

#465000
b110 aaaag
b101 aaaal
b101 aaaam
b101 aaaat
1abc

#470000
0abc

#475000
b111 aaaag
b110 aaaal
b110 aaaam
b110 aaaat
1abc

#480000
0abc

#485000
b1000 aaaag
0aaaaj
b111 aaaal
b111 aaaam
b1 aaaao
0aap
0aas
b111 aaaat
1aax
1aaz
1abc

#490000
0abc

#495000
b1 aaaab
1aac
1aad
0aah
0aai
0aax
0aaz
1abc

#495030
0aaf
b10 aaaao
1aau
1aav
b1000 aaaaw

#500000
0abc

#505000
b10 aaaab
0aac
0aad
b1000 aaaae
1aaf
b1 aaaag
1aah
1aai
1aaaaj
b0 aaaal
b0 aaaam
1aap
1aas
b0 aaaat
0aau
0aav
bXXXXXXXXXXXXXXXXXXXXXXXXXXXXXXXX aaaaw
1abc

#510000
0abc

#515000
b10 aaaag
b1 aaaal
b1 aaaam
b1 aaaat
1abc

#520000
0abc

#525000
b11 aaaag
b10 aaaal
b10 aaaam
b10 aaaat
1abc

#530000
0abc

#535000
b100 aaaag
b11 aaaal
b11 aaaam
b11 aaaat
1abc

#540000
0abc

#545000
b101 aaaag
b100 aaaal
b100 aaaam
b100 aaaat
1abc

#550000
0abc

#555000
b110 aaaag
b101 aaaal
b101 aaaam
b101 aaaat
1abc

#560000
0abc

#565000
b111 aaaag
b110 aaaal
b110 aaaam
b110 aaaat
1abc

#570000
0abc

#575000
b1000 aaaag
b111 aaaal
b111 aaaam
b111 aaaat
1abc

#580000
0abc

#585000
b1001 aaaag
0aaaaj
b1000 aaaal
b1000 aaaam
b1 aaaao
0aap
0aas
b1000 aaaat
1aax
1aaz
1abc

#590000
0abc

#595000
b1 aaaab
1aac
1aad
0aah
0aai
0aax
0aaz
1abc

#595030
0aaf
b10 aaaao
1aau
1aav
b1001 aaaaw

#600000
0abc

#605000
b10 aaaab
0aac
0aad
b1001 aaaae
1aaf
b1 aaaag
1aah
1aai
1aaaaj
b0 aaaal
b0 aaaam
1aap
1aas
b0 aaaat
0aau
0aav
bXXXXXXXXXXXXXXXXXXXXXXXXXXXXXXXX aaaaw
1abc

#610000
0abc

#615000
b10 aaaag
b1 aaaal
b1 aaaam
b1 aaaat
1abc

#620000
0abc

#625000
b11 aaaag
b10 aaaal
b10 aaaam
b10 aaaat
1abc

#630000
0abc

#635000
b100 aaaag
b11 aaaal
b11 aaaam
b11 aaaat
1abc

#640000
0abc

#645000
b101 aaaag
b100 aaaal
b100 aaaam
b100 aaaat
1abc

#650000
0abc

#655000
b110 aaaag
b101 aaaal
b101 aaaam
b101 aaaat
1abc

#660000
0abc

#665000
b111 aaaag
b110 aaaal
b110 aaaam
b110 aaaat
1abc

#670000
0abc

#675000
b1000 aaaag
b111 aaaal
b111 aaaam
b111 aaaat
1abc

#680000
0abc

#685000
b1001 aaaag
b1000 aaaal
b1000 aaaam
b1000 aaaat
1abc

#690000
0abc

#695000
b1010 aaaag
0aaaaj
b1001 aaaal
b1001 aaaam
b1 aaaao
0aap
0aas
b1001 aaaat
1aax
1aaz
1abc

#700000
0abc

#705000
b1 aaaab
1aac
1aad
0aah
0aai
0aax
0aaz
1abc

#705030
0aaf
b10 aaaao
1aau
1aav
b1010 aaaaw

#710000
0abc

#715000
b10 aaaab
0aac
0aad
b1010 aaaae
1aaf
b1 aaaag
1aah
1aai
1aaaaj
b0 aaaal
b0 aaaam
1aap
1aas
b0 aaaat
0aau
0aav
bXXXXXXXXXXXXXXXXXXXXXXXXXXXXXXXX aaaaw
1abc

#720000
0abc

#725000
b10 aaaag
b1 aaaal
b1 aaaam
b1 aaaat
1abc

#730000
0abc

#735000
b11 aaaag
b10 aaaal
b10 aaaam
b10 aaaat
1abc

#740000
0abc

#745000
b100 aaaag
b11 aaaal
b11 aaaam
b11 aaaat
1abc

#750000
0abc

#755000
b101 aaaag
b100 aaaal
b100 aaaam
b100 aaaat
1abc

#760000
0abc

#765000
b110 aaaag
b101 aaaal
b101 aaaam
b101 aaaat
1abc

#770000
0abc

#775000
b111 aaaag
b110 aaaal
b110 aaaam
b110 aaaat
1abc

#780000
0abc

#785000
b1000 aaaag
b111 aaaal
b111 aaaam
b111 aaaat
1abc

#790000
0abc

#795000
b1001 aaaag
b1000 aaaal
b1000 aaaam
b1000 aaaat
1abc

#800000
0abc

#805000
b1010 aaaag
b1001 aaaal
b1001 aaaam
b1001 aaaat
1abc

#810000
0abc

#815000
b1011 aaaag
0aaaaj
b1010 aaaal
b1010 aaaam
b1 aaaao
0aap
0aas
b1010 aaaat
1aax
1aaz
1abc

#820000
0abc

#825000
b1 aaaab
1aac
1aad
0aah
0aai
0aax
0aaz
1abc

#825030
0aaf
b10 aaaao
1aau
1aav
b1011 aaaaw

#830000
0abc

#835000
b10 aaaab
0aac
0aad
b1011 aaaae
1aaf
b1 aaaag
1aah
1aai
1aaaaj
b0 aaaal
b0 aaaam
1aap
1aas
b0 aaaat
0aau
0aav
bXXXXXXXXXXXXXXXXXXXXXXXXXXXXXXXX aaaaw
1abc

#840000
0abc

#845000
b10 aaaag
b1 aaaal
b1 aaaam
b1 aaaat
1abc

#850000
0abc

#855000
b11 aaaag
b10 aaaal
b10 aaaam
b10 aaaat
1abc

#860000
0abc

#865000
b100 aaaag
b11 aaaal
b11 aaaam
b11 aaaat
1abc

#870000
0abc

#875000
b101 aaaag
b100 aaaal
b100 aaaam
b100 aaaat
1abc

#880000
0abc

#885000
b110 aaaag
b101 aaaal
b101 aaaam
b101 aaaat
1abc

#890000
0abc

#895000
b111 aaaag
b110 aaaal
b110 aaaam
b110 aaaat
1abc

#900000
0abc

#905000
b1000 aaaag
b111 aaaal
b111 aaaam
b111 aaaat
1abc

#910000
0abc

#915000
b1001 aaaag
b1000 aaaal
b1000 aaaam
b1000 aaaat
1abc

#920000
0abc

#925000
b1010 aaaag
b1001 aaaal
b1001 aaaam
b1001 aaaat
1abc

#930000
0abc

#935000
b1011 aaaag
b1010 aaaal
b1010 aaaam
b1010 aaaat
1abc

#940000
0abc

#945000
b1100 aaaag
0aaaaj
b1011 aaaal
b1011 aaaam
b1 aaaao
0aap
0aas
b1011 aaaat
1aax
1aaz
1abc

#950000
0abc

#955000
b1 aaaab
1aac
1aad
0aah
0aai
0aax
0aaz
1abc

#955030
0aaf
b10 aaaao
1aau
1aav
b1100 aaaaw

#960000
0abc

#965000
b10 aaaab
0aac
0aad
b1100 aaaae
1aaf
b1 aaaag
1aah
1aai
1aaaaj
b0 aaaal
b0 aaaam
1aap
1aas
b0 aaaat
0aau
0aav
bXXXXXXXXXXXXXXXXXXXXXXXXXXXXXXXX aaaaw
1abc

#970000
0abc

#975000
b10 aaaag
b1 aaaal
b1 aaaam
b1 aaaat
1abc

#980000
0abc

#985000
b11 aaaag
b10 aaaal
b10 aaaam
b10 aaaat
1abc

#990000
0abc

#995000
b100 aaaag
b11 aaaal
b11 aaaam
b11 aaaat
1abc

#1000000
0abc

#1005000
b101 aaaag
b100 aaaal
b100 aaaam
b100 aaaat
1abc

#1010000
0abc

#1015000
b110 aaaag
b101 aaaal
b101 aaaam
b101 aaaat
1abc

#1020000
0abc

#1025000
b111 aaaag
b110 aaaal
b110 aaaam
b110 aaaat
1abc

#1030000
0abc

#1035000
b1000 aaaag
b111 aaaal
b111 aaaam
b111 aaaat
1abc

#1040000
0abc

#1045000
b1001 aaaag
b1000 aaaal
b1000 aaaam
b1000 aaaat
1abc

#1050000
0abc

#1055000
b1010 aaaag
b1001 aaaal
b1001 aaaam
b1001 aaaat
1abc

#1060000
0abc

#1065000
b1011 aaaag
b1010 aaaal
b1010 aaaam
b1010 aaaat
1abc

#1070000
0abc

#1075000
b1100 aaaag
b1011 aaaal
b1011 aaaam
b1011 aaaat
1abc

#1080000
0abc

#1085000
b1101 aaaag
0aaaaj
b1100 aaaal
b1100 aaaam
b1 aaaao
0aap
0aas
b1100 aaaat
1aax
1aaz
1abc

#1090000
0abc

#1095000
b1 aaaab
1aac
1aad
0aah
0aai
0aax
0aaz
1abc

#1095030
0aaf
b10 aaaao
1aau
1aav
b1101 aaaaw

#1100000
0abc

#1105000
b10 aaaab
0aac
0aad
b1101 aaaae
1aaf
b1 aaaag
1aah
1aai
1aaaaj
b0 aaaal
b0 aaaam
1aap
1aas
b0 aaaat
0aau
0aav
bXXXXXXXXXXXXXXXXXXXXXXXXXXXXXXXX aaaaw
1abc

#1110000
0abc

#1115000
b10 aaaag
b1 aaaal
b1 aaaam
b1 aaaat
1abc

#1120000
0abc

#1125000
b11 aaaag
b10 aaaal
b10 aaaam
b10 aaaat
1abc

#1130000
0abc

#1135000
b100 aaaag
b11 aaaal
b11 aaaam
b11 aaaat
1abc

#1140000
0abc

#1145000
b101 aaaag
b100 aaaal
b100 aaaam
b100 aaaat
1abc

#1150000
0abc

#1155000
b110 aaaag
b101 aaaal
b101 aaaam
b101 aaaat
1abc

#1160000
0abc

#1165000
b111 aaaag
b110 aaaal
b110 aaaam
b110 aaaat
1abc

#1170000
0abc

#1175000
b1000 aaaag
b111 aaaal
b111 aaaam
b111 aaaat
1abc

#1180000
0abc

#1185000
b1001 aaaag
b1000 aaaal
b1000 aaaam
b1000 aaaat
1abc

#1190000
0abc

#1195000
b1010 aaaag
b1001 aaaal
b1001 aaaam
b1001 aaaat
1abc

#1200000
0abc

#1205000
b1011 aaaag
b1010 aaaal
b1010 aaaam
b1010 aaaat
1abc

#1210000
0abc

#1215000
b1100 aaaag
b1011 aaaal
b1011 aaaam
b1011 aaaat
1abc

#1220000
0abc

#1225000
b1101 aaaag
b1100 aaaal
b1100 aaaam
b1100 aaaat
1abc

#1230000
0abc

#1235000
b1110 aaaag
0aaaaj
b1101 aaaal
b1101 aaaam
b1 aaaao
0aap
0aas
b1101 aaaat
1aax
1aaz
1abc

#1240000
0abc

#1245000
b1 aaaab
1aac
1aad
0aah
0aai
0aax
0aaz
1abc

#1245030
0aaf
b10 aaaao
1aau
1aav
b1110 aaaaw

#1250000
0abc

#1255000
b10 aaaab
0aac
0aad
b1110 aaaae
1aaf
b1 aaaag
1aah
1aai
1aaaaj
b0 aaaal
b0 aaaam
1aap
1aas
b0 aaaat
0aau
0aav
bXXXXXXXXXXXXXXXXXXXXXXXXXXXXXXXX aaaaw
1abc

#1260000
0abc

#1265000
b10 aaaag
b1 aaaal
b1 aaaam
b1 aaaat
1abc

#1270000
0abc

#1275000
b11 aaaag
b10 aaaal
b10 aaaam
b10 aaaat
1abc

#1280000
0abc

#1285000
b100 aaaag
b11 aaaal
b11 aaaam
b11 aaaat
1abc

#1290000
0abc

#1295000
b101 aaaag
b100 aaaal
b100 aaaam
b100 aaaat
1abc

#1300000
0abc

#1305000
b110 aaaag
b101 aaaal
b101 aaaam
b101 aaaat
1abc

#1310000
0abc

#1315000
b111 aaaag
b110 aaaal
b110 aaaam
b110 aaaat
1abc

#1320000
0abc

#1325000
b1000 aaaag
b111 aaaal
b111 aaaam
b111 aaaat
1abc

#1330000
0abc

#1335000
b1001 aaaag
b1000 aaaal
b1000 aaaam
b1000 aaaat
1abc

#1340000
0abc

#1345000
b1010 aaaag
b1001 aaaal
b1001 aaaam
b1001 aaaat
1abc

#1350000
0abc

#1355000
b1011 aaaag
b1010 aaaal
b1010 aaaam
b1010 aaaat
1abc

#1360000
0abc

#1365000
b1100 aaaag
b1011 aaaal
b1011 aaaam
b1011 aaaat
1abc

#1370000
0abc

#1375000
b1101 aaaag
b1100 aaaal
b1100 aaaam
b1100 aaaat
1abc

#1380000
0abc

#1385000
b1110 aaaag
b1101 aaaal
b1101 aaaam
b1101 aaaat
1abc

#1390000
0abc

#1395000
b1111 aaaag
0aaaaj
b1110 aaaal
b1110 aaaam
b1 aaaao
0aap
0aas
b1110 aaaat
1aax
1aaz
1abc

#1400000
0abc

#1405000
b1 aaaab
1aac
1aad
0aah
0aai
0aax
0aaz
1abc

#1405030
0aaf
b10 aaaao
1aau
1aav
b1111 aaaaw

#1410000
0abc

#1415000
b10 aaaab
0aac
0aad
b1111 aaaae
1aaf
b1 aaaag
1aah
1aai
1aaaaj
b0 aaaal
b0 aaaam
1aap
1aas
b0 aaaat
0aau
0aav
bXXXXXXXXXXXXXXXXXXXXXXXXXXXXXXXX aaaaw
1abc

#1420000
0abc

#1425000
b10 aaaag
b1 aaaal
b1 aaaam
b1 aaaat
1abc

#1430000
0abc

#1435000
b11 aaaag
b10 aaaal
b10 aaaam
b10 aaaat
1abc

#1440000
0abc

#1445000
b100 aaaag
b11 aaaal
b11 aaaam
b11 aaaat
1abc

#1450000
0abc

#1455000
b101 aaaag
b100 aaaal
b100 aaaam
b100 aaaat
1abc

#1460000
0abc

#1465000
b110 aaaag
b101 aaaal
b101 aaaam
b101 aaaat
1abc

#1470000
0abc

#1475000
b111 aaaag
b110 aaaal
b110 aaaam
b110 aaaat
1abc

#1480000
0abc

#1485000
b1000 aaaag
b111 aaaal
b111 aaaam
b111 aaaat
1abc

#1490000
0abc

#1495000
b1001 aaaag
b1000 aaaal
b1000 aaaam
b1000 aaaat
1abc

#1500000
0abc

#1505000
b1010 aaaag
b1001 aaaal
b1001 aaaam
b1001 aaaat
1abc

#1510000
0abc

#1515000
b1011 aaaag
b1010 aaaal
b1010 aaaam
b1010 aaaat
1abc

#1520000
0abc

#1525000
b1100 aaaag
b1011 aaaal
b1011 aaaam
b1011 aaaat
1abc

#1530000
0abc

#1535000
b1101 aaaag
b1100 aaaal
b1100 aaaam
b1100 aaaat
1abc

#1540000
0abc

#1545000
b1110 aaaag
b1101 aaaal
b1101 aaaam
b1101 aaaat
1abc

#1550000
0abc

#1555000
b1111 aaaag
b1110 aaaal
b1110 aaaam
b1110 aaaat
1abc

#1560000
0abc

#1565000
b10000 aaaag
0aaaaj
b1111 aaaal
b1111 aaaam
b1 aaaao
0aap
0aas
b1111 aaaat
1aax
1aaz
1abc

#1570000
0abc

#1575000
b1 aaaab
1aac
1aad
0aah
0aai
0aax
0aaz
1abc

#1575030
0aaf
b10 aaaao
1aau
1aav
b10000 aaaaw

#1580000
0abc

#1585000
b10 aaaab
0aac
0aad
b10000 aaaae
1aaf
b1 aaaag
1aah
1aai
1aaaaj
b0 aaaal
b0 aaaam
1aap
1aas
b0 aaaat
0aau
0aav
bXXXXXXXXXXXXXXXXXXXXXXXXXXXXXXXX aaaaw
1abc

#1590000
0abc

#1595000
b10 aaaag
b1 aaaal
b1 aaaam
b1 aaaat
1abc

#1600000
0abc

#1605000
b11 aaaag
b10 aaaal
b10 aaaam
b10 aaaat
1abc

#1610000
0abc

#1615000
b100 aaaag
b11 aaaal
b11 aaaam
b11 aaaat
1abc

#1620000
0abc

#1625000
b101 aaaag
b100 aaaal
b100 aaaam
b100 aaaat
1abc

#1630000
0abc

#1635000
b110 aaaag
b101 aaaal
b101 aaaam
b101 aaaat
1abc

#1640000
0abc

#1645000
b111 aaaag
b110 aaaal
b110 aaaam
b110 aaaat
1abc

#1650000
0abc

#1655000
b1000 aaaag
b111 aaaal
b111 aaaam
b111 aaaat
1abc

#1660000
0abc

#1665000
b1001 aaaag
b1000 aaaal
b1000 aaaam
b1000 aaaat
1abc

#1670000
0abc

#1675000
b1010 aaaag
b1001 aaaal
b1001 aaaam
b1001 aaaat
1abc

#1680000
0abc

#1685000
b1011 aaaag
b1010 aaaal
b1010 aaaam
b1010 aaaat
1abc

#1690000
0abc

#1695000
b1100 aaaag
b1011 aaaal
b1011 aaaam
b1011 aaaat
1abc

#1700000
0abc

#1705000
b1101 aaaag
b1100 aaaal
b1100 aaaam
b1100 aaaat
1abc

#1710000
0abc

#1715000
b1110 aaaag
b1101 aaaal
b1101 aaaam
b1101 aaaat
1abc

#1720000
0abc

#1725000
b1111 aaaag
b1110 aaaal
b1110 aaaam
b1110 aaaat
1abc

#1730000
0abc

#1735000
b10000 aaaag
b1111 aaaal
b1111 aaaam
b1111 aaaat
1abc

#1740000
0abc

#1745000
b10001 aaaag
0aaaaj
b10000 aaaal
b10000 aaaam
b1 aaaao
0aap
0aas
b10000 aaaat
1aax
1aaz
1abc

#1750000
0abc

#1755000
b1 aaaab
1aac
1aad
0aah
0aai
0aax
0aaz
1abc

#1755030
0aaf
b10 aaaao
1aau
1aav
b10001 aaaaw

#1760000
0abc

#1765000
b10 aaaab
0aac
0aad
b10001 aaaae
1aaf
b1 aaaag
1aah
1aai
1aaaaj
b0 aaaal
b0 aaaam
1aap
1aas
b0 aaaat
0aau
0aav
bXXXXXXXXXXXXXXXXXXXXXXXXXXXXXXXX aaaaw
1abc

#1770000
0abc

#1775000
b10 aaaag
b1 aaaal
b1 aaaam
b1 aaaat
1abc

#1780000
0abc

#1785000
b11 aaaag
b10 aaaal
b10 aaaam
b10 aaaat
1abc

#1790000
0abc

#1795000
b100 aaaag
b11 aaaal
b11 aaaam
b11 aaaat
1abc

#1800000
0abc

#1805000
b101 aaaag
b100 aaaal
b100 aaaam
b100 aaaat
1abc

#1810000
0abc

#1815000
b110 aaaag
b101 aaaal
b101 aaaam
b101 aaaat
1abc

#1820000
0abc

#1825000
b111 aaaag
b110 aaaal
b110 aaaam
b110 aaaat
1abc

#1830000
0abc

#1835000
b1000 aaaag
b111 aaaal
b111 aaaam
b111 aaaat
1abc

#1840000
0abc

#1845000
b1001 aaaag
b1000 aaaal
b1000 aaaam
b1000 aaaat
1abc

#1850000
0abc

#1855000
b1010 aaaag
b1001 aaaal
b1001 aaaam
b1001 aaaat
1abc

#1860000
0abc

#1865000
b1011 aaaag
b1010 aaaal
b1010 aaaam
b1010 aaaat
1abc

#1870000
0abc

#1875000
b1100 aaaag
b1011 aaaal
b1011 aaaam
b1011 aaaat
1abc

#1880000
0abc

#1885000
b1101 aaaag
b1100 aaaal
b1100 aaaam
b1100 aaaat
1abc

#1890000
0abc

#1895000
b1110 aaaag
b1101 aaaal
b1101 aaaam
b1101 aaaat
1abc

#1900000
0abc

#1905000
b1111 aaaag
b1110 aaaal
b1110 aaaam
b1110 aaaat
1abc

#1910000
0abc

#1915000
b10000 aaaag
b1111 aaaal
b1111 aaaam
b1111 aaaat
1abc

#1920000
0abc

#1925000
b10001 aaaag
b10000 aaaal
b10000 aaaam
b10000 aaaat
1abc

#1930000
0abc

#1935000
b10010 aaaag
0aaaaj
b10001 aaaal
b10001 aaaam
b1 aaaao
0aap
0aas
b10001 aaaat
1aax
1aaz
1abc

#1940000
0abc

#1945000
b1 aaaab
1aac
1aad
0aah
0aai
0aax
0aaz
1abc

#1945030
0aaf
b10 aaaao
1aau
1aav
b10010 aaaaw

#1950000
0abc

#1955000
b10 aaaab
0aac
0aad
b10010 aaaae
1aaf
b1 aaaag
1aah
1aai
1aaaaj
b0 aaaal
b0 aaaam
1aap
1aas
b0 aaaat
0aau
0aav
bXXXXXXXXXXXXXXXXXXXXXXXXXXXXXXXX aaaaw
1abc

#1960000
0abc

#1965000
b10 aaaag
b1 aaaal
b1 aaaam
b1 aaaat
1abc

#1970000
0abc

#1975000
b11 aaaag
b10 aaaal
b10 aaaam
b10 aaaat
1abc

#1980000
0abc

#1985000
b100 aaaag
b11 aaaal
b11 aaaam
b11 aaaat
1abc

#1990000
0abc

#1995000
b101 aaaag
b100 aaaal
b100 aaaam
b100 aaaat
1abc

#2000000
0abc

#2005000
b110 aaaag
b101 aaaal
b101 aaaam
b101 aaaat
1abc

#2010000
0abc

#2015000
b111 aaaag
b110 aaaal
b110 aaaam
b110 aaaat
1abc

#2020000
0abc

#2025000
b1000 aaaag
b111 aaaal
b111 aaaam
b111 aaaat
1abc

#2030000
0abc

#2035000
b1001 aaaag
b1000 aaaal
b1000 aaaam
b1000 aaaat
1abc

#2040000
0abc

#2045000
b1010 aaaag
b1001 aaaal
b1001 aaaam
b1001 aaaat
1abc

#2050000
0abc

#2055000
b1011 aaaag
b1010 aaaal
b1010 aaaam
b1010 aaaat
1abc

#2060000
0abc

#2065000
b1100 aaaag
b1011 aaaal
b1011 aaaam
b1011 aaaat
1abc

#2070000
0abc

#2075000
b1101 aaaag
b1100 aaaal
b1100 aaaam
b1100 aaaat
1abc

#2080000
0abc

#2085000
b1110 aaaag
b1101 aaaal
b1101 aaaam
b1101 aaaat
1abc

#2090000
0abc

#2095000
b1111 aaaag
b1110 aaaal
b1110 aaaam
b1110 aaaat
1abc

#2100000
0abc

#2105000
b10000 aaaag
b1111 aaaal
b1111 aaaam
b1111 aaaat
1abc

#2110000
0abc

#2115000
b10001 aaaag
b10000 aaaal
b10000 aaaam
b10000 aaaat
1abc

#2120000
0abc

#2125000
b10010 aaaag
b10001 aaaal
b10001 aaaam
b10001 aaaat
1abc

